Extinctions Unit · RCDS
…
extinct = read_csv("http://berkeley.carlboettiger.info/espm-88b/extinction/data/extinct.csv")

Parsed with column specification:
cols(
  .default = col_character(),
  `Species ID` = col_integer(),
  `Red List criteria version` = col_double(),
  `Year assessed` = col_integer()
)

See spec(...) for full column specifications.

extinct

# A tibble: 834 × 23
   `Species ID`  Kingdom       Phylum         Class           Order
          <int>    <chr>        <chr>         <chr>           <chr>
1         44072  PLANTAE TRACHEOPHYTA MAGNOLIOPSIDA         ROSALES
2        195373  PLANTAE TRACHEOPHYTA MAGNOLIOPSIDA    EUPHORBIALES
3         37854  PLANTAE TRACHEOPHYTA MAGNOLIOPSIDA    EUPHORBIALES
4        199821  PLANTAE TRACHEOPHYTA MAGNOLIOPSIDA    EUPHORBIALES
5            82 ANIMALIA   ARTHROPODA       INSECTA   EPHEMEROPTERA
6           167 ANIMALIA     MOLLUSCA    GASTROPODA STYLOMMATOPHORA
7           170 ANIMALIA     MOLLUSCA    GASTROPODA STYLOMMATOPHORA
8           173 ANIMALIA     MOLLUSCA    GASTROPODA STYLOMMATOPHORA
9           174 ANIMALIA     MOLLUSCA    GASTROPODA STYLOMMATOPHORA
10          179 ANIMALIA     MOLLUSCA    GASTROPODA STYLOMMATOPHORA
# ... with 824 more rows, and 18 more variables: Family <chr>,
#   Genus <chr>, Species <chr>, Authority <chr>, `Infraspecific
#   rank` <chr>, `Infraspecific name` <chr>, `Infraspecific
#   authority` <chr>, `Stock/subpopulation` <chr>, Synonyms <chr>,
#   `Common names (Eng)` <chr>, `Common names (Fre)` <chr>, `Common
#   names (Spa)` <chr>, `Red List status` <chr>, `Red List
#   criteria` <chr>, `Red List criteria version` <dbl>, `Year
#   assessed` <int>, `Population trend` <chr>, Petitioned <chr>
…
